module company_service

go 1.17

require (
	github.com/jmoiron/sqlx v1.3.4
	github.com/lib/pq v1.10.4
	go.uber.org/zap v1.19.1
	google.golang.org/grpc v1.43.0
)

require (
	github.com/golang/protobuf v1.4.3 // indirect
	github.com/google/uuid v1.3.0 // direct
	github.com/spf13/cast v1.4.1 // direct
	go.uber.org/atomic v1.7.0 // indirect
	go.uber.org/multierr v1.6.0 // indirect
	golang.org/x/net v0.0.0-20210405180319-a5a99cb37ef4 // indirect
	golang.org/x/sys v0.0.0-20210510120138-977fb7262007 // indirect
	golang.org/x/text v0.3.3 // indirect
	google.golang.org/genproto v0.0.0-20200526211855-cb27e3aa2013 // indirect
	google.golang.org/protobuf v1.25.0 // direct
)
